<svg xmlns="http://www.w3.org/2000/svg" width="40" height="40" fill="none" viewBox="0 0 40 40">
    <path fill="#757E86" d="M29.253 28.09c.254.586-.016 1.267-.602 1.521-.587.254-1.268-.017-1.521-.603-1.117-2.58-3.754-4.248-6.72-4.248-3.036 0-5.69 1.666-6.76 4.245-.185.445-.616.714-1.069.715-.148 0-.298-.029-.444-.089-.59-.246-.87-.923-.624-1.513 1.43-3.446 4.923-5.671 8.897-5.671 3.89 0 7.361 2.215 8.843 5.642zM12.348 14.996l-.997.321c-.638.206-1.322-.145-1.528-.783-.206-.638.145-1.322.783-1.527l4.91-1.583c.638-.205 1.322.145 1.527.783.186.574-.082 1.182-.603 1.449.893.937.882 2.42-.038 3.34-.934.934-2.449.934-3.383-.001-.546-.545-.763-1.289-.67-2zm18.198-.535c-.206.638-.89.99-1.528.783l-.997-.321c.092.71-.125 1.454-.67 2-.935.934-2.45.934-3.384 0-.92-.92-.931-2.403-.038-3.34-.52-.266-.788-.875-.603-1.449.206-.638.89-.989 1.528-.783l4.91 1.583c.637.205.988.889.782 1.527zM32.969 40H7.032C3.155 40 0 36.846 0 32.968V7.032C0 3.154 3.155 0 7.032 0h25.936C36.846 0 40 3.155 40 7.032v25.936C40 36.846 36.846 40 32.969 40zM7.032 3.309c-2.052 0-3.723 1.67-3.723 3.723v25.935c0 2.053 1.67 3.723 3.723 3.723h25.936c2.052 0 3.723-1.67 3.723-3.723V7.032c0-2.053-1.67-3.723-3.723-3.723H7.032z"/>
</svg>
