{
  "project_info": {
    "project_number": "126536729528",
    "firebase_url": "https://socialauth-f48f2.firebaseio.com",
    "project_id": "socialauth-f48f2",
    "storage_bucket": "socialauth-f48f2.appspot.com"
  },
  "client": [
    {
      "client_info": {
        "mobilesdk_app_id": "1:126536729528:android:c4c3401dbfcd745bb6854d",
        "android_client_info": {
          "package_name": "com.example.arto_app"
        }
      },
      "oauth_client": [
        {
          "client_id": "126536729528-tb7plpctmq1vo3vl1a5i6571vuck87vq.apps.googleusercontent.com",
          "client_type": 1,
          "android_info": {
            "package_name": "com.example.arto_app",
            "certificate_hash": "848f9607b7965217f21dece93c95aad9b2f21515"
          }
        },
        {
          "client_id": "126536729528-6vl77nsasqqgdidm1pkp1chgrlae8qf0.apps.googleusercontent.com",
          "client_type": 3
        }
      ],
      "api_key": [
        {
          "current_key": "AIzaSyCL7ybJGu5y2H6cIAs-T_xZDgqF469fCq4"
        }
      ],
      "services": {
        "appinvite_service": {
          "other_platform_oauth_client": [
            {
              "client_id": "126536729528-6vl77nsasqqgdidm1pkp1chgrlae8qf0.apps.googleusercontent.com",
              "client_type": 3
            }
          ]
        }
      }
    },
    {
      "client_info": {
        "mobilesdk_app_id": "1:126536729528:android:be2604a89c2baf72b6854d",
        "android_client_info": {
          "package_name": "com.example.auctioneer"
        }
      },
      "oauth_client": [
        {
          "client_id": "126536729528-6vl77nsasqqgdidm1pkp1chgrlae8qf0.apps.googleusercontent.com",
          "client_type": 3
        }
      ],
      "api_key": [
        {
          "current_key": "AIzaSyCL7ybJGu5y2H6cIAs-T_xZDgqF469fCq4"
        }
      ],
      "services": {
        "appinvite_service": {
          "other_platform_oauth_client": [
            {
              "client_id": "126536729528-6vl77nsasqqgdidm1pkp1chgrlae8qf0.apps.googleusercontent.com",
              "client_type": 3
            }
          ]
        }
      }
    }
  ],
  "configuration_version": "1"
}